…
`mutate()`は先ほど説明した`group()`と組み合わせて使用すると便利なときがあります．

``` r
mpg_new <- mpg %>% 
  group_by(manufacturer, year) %>% 
  mutate(displ_mean = mean(displ)) %>% 
  ungroup()

# 確認
mpg_new %>% 
  select(manufacturer, model, year, displ_mean)
```

    ## # A tibble: 234 x 4
    ##    manufacturer model       year displ_mean
    ##    <chr>        <chr>      <int>      <dbl>
    ##  1 audi         a4          1999       2.36
    ##  2 audi         a4          1999       2.36
    ##  3 audi         a4          2008       2.73
    ##  4 audi         a4          2008       2.73
    ##  5 audi         a4          1999       2.36
    ##  6 audi         a4          1999       2.36
    ##  7 audi         a4          2008       2.73
    ##  8 audi         a4 quattro  1999       2.36
    ##  9 audi         a4 quattro  1999       2.36
    ## 10 audi         a4 quattro  2008       2.73
    ## # ... with 224 more rows
…
